[gd_scene load_steps=4 format=2]

[ext_resource path="res://objects/platform/platform.gd" type="Script" id=1]
[ext_resource path="res://objects/platform/platform.png" type="Texture" id=2]

[sub_resource type="RectangleShape2D" id=1]
extents = Vector2( 640, 32 )

[node name="platform" type="StaticBody2D"]
script = ExtResource( 1 )
__meta__ = {
"_edit_group_": true
}

[node name="sprite" type="Sprite" parent="."]
texture = ExtResource( 2 )

[node name="collision" type="CollisionShape2D" parent="."]
shape = SubResource( 1 )

[node name="visible" type="VisibilityNotifier2D" parent="."]
position = Vector2( -3.05176e-005, 1.90735e-007 )
scale = Vector2( 64, 3.2 )
[connection signal="viewport_exited" from="visible" to="." method="_on_visible_viewport_exited"]
