; Engine configuration file.
; It's best edited using the editor UI and not directly,
; since the parameters that go here are not all obvious.
;
; Format:
;   [section] ; section goes between []
;   param=value ; assign values to parameters

config_version=4

_global_script_classes=[  ]
_global_script_class_icons={

}

[application]

config/name="Fox Island"
run/main_scene="res://screens/main_menu/main_menu.tscn"
config/icon="res://icon.png"

[display]

window/size/width=1280
window/size/height=720
window/size/resizable=false
window/dpi/allow_hidpi=true
window/stretch/mode="2d"
window/stretch/aspect="keep"

[input]

player_jump={
"deadzone": 0.5,
"events": [ Object(InputEventKey,"resource_local_to_scene":false,"resource_name":"","device":0,"alt":false,"shift":false,"control":false,"meta":false,"command":false,"pressed":false,"scancode":16777232,"unicode":0,"echo":false,"script":null)
, Object(InputEventKey,"resource_local_to_scene":false,"resource_name":"","device":0,"alt":false,"shift":false,"control":false,"meta":false,"command":false,"pressed":false,"scancode":87,"unicode":0,"echo":false,"script":null)
, Object(InputEventJoypadButton,"resource_local_to_scene":false,"resource_name":"","device":-1,"button_index":0,"pressure":0.0,"pressed":false,"script":null)
, Object(InputEventMouseButton,"resource_local_to_scene":false,"resource_name":"","device":-1,"alt":false,"shift":false,"control":false,"meta":false,"command":false,"button_mask":0,"position":Vector2( 0, 0 ),"global_position":Vector2( 0, 0 ),"factor":1.0,"button_index":1,"pressed":false,"doubleclick":false,"script":null)
 ]
}

[layer_names]

2d_physics/layer_1="player"
2d_physics/layer_2="box"
2d_physics/layer_3="floor"
